…
::: {.cell}

```{.r .cell-code}
n_abs1 <- grades |>
  group_by(Group) |>
  summarise("number of absent students" = sum(is.na(Exam)))

n_abs1
```

::: {.cell-output .cell-output-stdout}
```
# A tibble: 24 × 2
   Group  `number of absent students`
   <chr>                        <int>
 1 grp_1                            3
 2 grp_10                           7
 3 grp_11                           6
 4 grp_12                           1
 5 grp_13                           1
 6 grp_14                           1
 7 grp_15                           2
 8 grp_16                           0
 9 grp_17                           5
10 grp_18                           3
# ℹ 14 more rows
```
…
# Question 10


::: {.cell}

```{.r .cell-code}
long <- grades |>
  pivot_longer(col = c("Exam", starts_with("MCQ"), starts_with("Online_MCQ")), names_to = "name", values_to = "value")

long
```

::: {.cell-output .cell-output-stdout}
```
# A tibble: 21,870 × 4
      Id Group  name  value
   <dbl> <chr>  <chr> <dbl>
 1   561 grp_16 Exam  10   
 2   561 grp_16 MCQ_1 15   
 3   561 grp_16 MCQ_2 18.5 
 4   561 grp_16 MCQ_3 12.7 
 5   561 grp_16 MCQ_4  8.24
 6   561 grp_16 MCQ_5 13.8 
 7   561 grp_16 MCQ_6 20   
 8   561 grp_16 MCQ_7 20   
 9   561 grp_16 MCQ_8 20   
10   561 grp_16 MCQ_9 20   
# ℹ 21,860 more rows
```
…
::: {.cell}

```{.r .cell-code}
n_missing_grade <- long |>
  group_by(Id) |>
  summarise("number of missing grades" = sum(is.na(value)))

n_missing_grade
```

::: {.cell-output .cell-output-stdout}
```
# A tibble: 729 × 2
      Id `number of missing grades`
   <dbl>                      <int>
 1     1                         10
 2     2                         15
 3     3                          6
 4     4                          0
 5     5                         19
 6     6                          1
 7     7                         11
 8     8                          4
 9     9                          6
10    10                          3
# ℹ 719 more rows
```
…
::: {.cell}

```{.r .cell-code}
n_abs2 <- long |>
  filter(name == "Exam") |>
  group_by(Group) |>
  summarise("number of absent students" = sum(is.na(value)))

n_abs2
```

::: {.cell-output .cell-output-stdout}
```
# A tibble: 24 × 2
   Group  `number of absent students`
   <chr>                        <int>
 1 grp_1                            3
 2 grp_10                           7
 3 grp_11                           6
 4 grp_12                           1
 5 grp_13                           1
 6 grp_14                           1
 7 grp_15                           2
 8 grp_16                           0
 9 grp_17                           5
10 grp_18                           3
# ℹ 14 more rows
```
…
::: {.cell}

```{.r .cell-code}
n_missing_online_tests <- long |>
  filter(str_starts(name, "Online_MCQ")) |>
  group_by(Id) |>
  summarise("number of missing online tests" = sum(is.na(value)))

n_missing_online_tests
```

::: {.cell-output .cell-output-stdout}
```
# A tibble: 729 × 2
      Id `number of missing online tests`
   <dbl>                            <int>
 1     1                                9
 2     2                               14
 3     3                                4
 4     4                                0
 5     5                               19
 6     6                                1
 7     7                               10
 8     8                                3
 9     9                                6
10    10                                3
# ℹ 719 more rows
```
…
::: {.cell}

```{.r .cell-code}
two_col_table1 <- long |>
  filter(str_starts(name, "MCQ")) |>
  group_by(Id) |>
  summarise("Missed" = (sum(is.na(value)) > 0))

two_col_table1
```

::: {.cell-output .cell-output-stdout}
```
# A tibble: 729 × 2
      Id Missed
   <dbl> <lgl> 
 1     1 TRUE  
 2     2 TRUE  
 3     3 TRUE  
 4     4 FALSE 
 5     5 FALSE 
 6     6 FALSE 
 7     7 TRUE  
 8     8 TRUE  
 9     9 FALSE 
10    10 FALSE 
# ℹ 719 more rows
```
…
```{.r .cell-code}
two_col_table2 <- long |>
  filter(str_starts(name, "MCQ")) |>
  group_by(Group, Id) |>
  summarise("Missed" = (sum(is.na(value)) > 0), .groups = "drop_last") |>
  group_by(Group) |>
  summarise("P_missed" = sum(Missed) / n())

two_col_table2
```

::: {.cell-output .cell-output-stdout}
```
# A tibble: 24 × 2
   Group  P_missed
   <chr>     <dbl>
 1 grp_1     0.448
 2 grp_10    0.435
 3 grp_11    0.24 
 4 grp_12    1    
 5 grp_13    0.103
 6 grp_14    0.406
 7 grp_15    0.441
 8 grp_16    0.212
 9 grp_17    0.257
10 grp_18    0.972
# ℹ 14 more rows
```
…
